"";"nom_ligne";"indicateur";"longueur_route";"sum_lits";"nombre_arrets";"nombre_parkings";"nombre_commerces";"nombre_eleves";"population";"passage_niveau"
"1";"bayonne";"mean";1985,66445957911;102,962962962963;0,888888888888889;0,0740740740740741;0,111111111111111;0;38,7282376814742;0,518518518518518
"2";"bayonne";"min";591,982217257903;0;0;0;0;0;0;0
"3";"bayonne";"max";3732,70275749451;370;12;2;1;0;147,629670897172;1
"4";"besancon";"mean";1736,81229881486;31,2333333333333;0,5;0,133333333333333;0;0;8,77179474030826;0
"5";"besancon";"min";0;0;0;0;0;0;0;0
"6";"besancon";"max";4487,59777551199;169;5;2;0;0;99,4314017485485;0
"7";"beziers";"mean";1589,72949730302;111,779220779221;0,292207792207792;0,0584415584415584;0,0324675324675325;0;15,6365348043429;0
"8";"beziers";"min";0;0;0;0;0;0;0;0
"9";"beziers";"max";6481,11587672273;625;8;5;3;0;292,298811134589;0
"10";"bordeaux";"mean";1681,61291624856;288,65306122449;2,75510204081633;0,0816326530612245;0,122448979591837;0;26,1002840282773;0,673469387755102
"11";"bordeaux";"min";0;0;0;0;0;0;0;0
"12";"bordeaux";"max";5401,87402602571;4229;16;2;1;0;214,304967158125;1
"13";"chamonix";"mean";2340,67450627592;1361,6;2;30,6666666666667;0,0666666666666667;0;39,1609312256303;0,0666666666666667
"14";"chamonix";"min";0;741;0;0;0;0;0;0
"15";"chamonix";"max";3858,98366154595;5897;9;444;1;0;146,788254553023;1
"16";"clermont";"mean";840,111830765943;74,9393939393939;0,151515151515152;2,15151515151515;0,0303030303030303;0;9,82815862981026;0
"17";"clermont";"min";0;0;0;0;0;0;0;0
"18";"clermont";"max";3213,33666010629;464;4;71;1;0;86,0246489974591;0
"19";"colmar";"mean";2429,16841472569;227,888888888889;2,88888888888889;10,2222222222222;0,444444444444444;0;50,5397318950936;1
"20";"colmar";"min";736,823589419065;122;0;0;0;0;0;0
"21";"colmar";"max";4029,73542575683;714;9;92;2;0;264,211794898329;2
"22";"deauville";"mean";2024,13037379492;931,142857142857;1,57142857142857;0,142857142857143;0,142857142857143;0;32,975724000165;0,785714285714286
"23";"deauville";"min";154,793437058103;0;0;0;0;0;3,28665543840668;0
"24";"deauville";"max";4330,68448951032;2174;14;2;1;0;86,1989826821581;2
"25";"limoges";"mean";1846,49250973809;22,9880952380952;0,238095238095238;0;0,0952380952380952;0;35,8740941050212;0,523809523809524
"26";"limoges";"min";0;0;0;0;0;0;0;0
"27";"limoges";"max";6304,79523302767;169;4;0;3;0;401,830233621736;1
"28";"marseille";"mean";1999,59269743541;779,641025641026;2,15384615384615;0,102564102564103;0,179487179487179;0;122,685711313525;0,0256410256410256
"29";"marseille";"min";0;0;0;0;0;0;0;0
"30";"marseille";"max";7729,003362166;2315;14;2;3;0;1000,97575178916;1
"31";"nantes";"mean";2672,99715187116;398,16091954023;1,04597701149425;83,3908045977011;0,206896551724138;0;107,737586964014;1,01149425287356
"32";"nantes";"min";0;0;0;0;0;0;0;0
"33";"nantes";"max";8043,66916745194;3335;20;2249;3;0;719,164119486752;2
"34";"nimes";"mean";1641,93739363369;976,818181818182;2,18181818181818;0;0,363636363636364;0;10,0287903109262;0
"35";"nimes";"min";0;0;0;0;0;0;0;0
"36";"nimes";"max";4602,53277082181;2588;16;0;2;0;38,3005408613569;0
"37";"paimpol";"mean";1331,78064494766;13,4666666666667;2;0,133333333333333;0;0;11,5169993339378;0
"38";"paimpol";"min";0;0;0;0;0;0;0;0
"39";"paimpol";"max";4015,83834395248;52;10;2;0;0;72,9515323104734;0
"40";"reims";"mean";4849,89336671587;872,870967741935;8,80645161290323;144,290322580645;1,06451612903226;82,8387096774194;676,318327375663;0,290322580645161
"41";"reims";"min";0;0;0;0;0;0;0;0
"42";"reims";"max";24852,2841461229;3817;72;2633;12;1561;6554,89980617757;2
"43";"rennes";"mean";2038,17818078063;30,6521739130435;0,956521739130435;0,173913043478261;0;0;21,9039543657551;0
"44";"rennes";"min";0;0;0;0;0;0;0;0
"45";"rennes";"max";5475,67921421959;132;14;2;0;0;229,159745834112;0
"46";"stpol";"mean";1539,38722339238;9,87234042553191;0,936170212765957;0,574468085106383;0,0425531914893617;0;36,30444095859;0,446808510638298
"47";"stpol";"min";0;0;0;0;0;0;0;0
"48";"stpol";"max";5384,2601190869;135;7;27;1;0;310,971195461167;1
"49";"tours";"mean";1328,8605423117;95,3947368421053;0,842105263157895;0;0;0;21,4344117539536;0,657894736842105
"50";"tours";"min";0;0;0;0;0;0;0;0
"51";"tours";"max";3682,68236061202;956;10;0;0;0;367,165317332294;1
