"";"nom_ligne";"indicateur";"longueur_route";"sum_lits";"nombre_arrets";"nombre_parkings";"nombre_commerces";"nombre_eleves";"population";"passage_niveau"
"1";"bayonne";"mean";7729,57197731788;1096;72;4;15;0;1890,64400534788;0
"2";"bayonne";"min";7729,57197731788;1096;72;4;15;0;1890,64400534788;0
"3";"bayonne";"max";7729,57197731788;1096;72;4;15;0;1890,64400534788;0
"4";"besancon";"mean";12752,4976920781;1267,33333333333;25;652,666666666667;16,6666666666667;219,833333333333;2970,58394123757;1
"5";"besancon";"min";7794,76513787638;24;5;0;6;0;1422,5194694729;0
"6";"besancon";"max";17421,4788340881;1847;54;1303;37;897;5822,32115791779;2
"7";"beziers";"mean";6280,14406967248;474,916666666667;2;390,166666666667;3,66666666666667;184,333333333333;415,352501290907;0,916666666666667
"8";"beziers";"min";2236,0294804983;43;0;0;0;0;9,45752866582467;0
"9";"beziers";"max";12368,3340992524;1951;8;1193;19;820;1369,74644536579;2
"10";"bordeaux";"mean";13115,9324147908;7693,33333333333;45,1111111111111;764,444444444444;4,88888888888889;156,222222222222;3088,98437974574;1,44444444444444
"11";"bordeaux";"min";10375,7360578603;147;31;0;2;0;722,953686486379;0
"12";"bordeaux";"max";15617,8375420704;14369;70;2829;8;1406;5071,98049630758;5
"13";"chamonix";"mean";11763,2622908582;3545;23,3333333333333;297,333333333333;14;934;1497,8881145459;1,33333333333333
"14";"chamonix";"min";11616,4660607626;2369;19;12;6;0;1106,70453437644;1
"15";"chamonix";"max";11988,5740954964;5897;32;440;30;1401;1701,08696429768;2
"16";"clermont";"mean";10219,2876794753;3265,57142857143;25,8571428571429;474,142857142857;6,14285714285714;0;2170,89763530846;0,857142857142857
"17";"clermont";"min";6239,3951805092;359;12;0;1;0;686,667463391817;0
"18";"clermont";"max";14138,5143500141;4346;47;1300;21;0;3819,05869389135;2
"19";"colmar";"mean";14052,992126751;2860,33333333333;26,3333333333333;1932,33333333333;5,33333333333333;0;2286,39401895749;1,66666666666667
"20";"colmar";"min";6910,28380372132;2493;18;906;4;0;831,949488821336;0
"21";"colmar";"max";19856,6314483019;3044;31;3106;7;0;3659,54173861872;3
"22";"deauville";"mean";11408,9902985795;2157,5;14,5;618;3;0;733,177462957911;3,5
"23";"deauville";"min";10379,9447531234;1517;10;6;2;0;607,517037884112;3
"24";"deauville";"max";12438,0358440355;2798;19;1230;4;0;858,83788803171;4
"25";"limoges";"mean";12054,1860667234;2213;36,8;398;3,8;789;2622,08017828636;2,2
"26";"limoges";"min";9670,73149663151;2213;17;0;0;0;2022,15884469787;1
"27";"limoges";"max";14829,4497509045;2213;54;1061;6;1371;3007,07946308306;4
"28";"marseille";"mean";14117,4050810524;11802,3;24;310,7;20,2;889,5;4018,5423655397;0,2
"29";"marseille";"min";9200,01256189819;699;10;0;7;0;2020,92690797232;0
"30";"marseille";"max";19499,2504134273;13036;42;2809;75;1620;12609,7886019702;1
"31";"nantes";"mean";16154,4275031544;4686,8;38;472;15,2;676,4;4243,01776128459;1,6
"32";"nantes";"min";14069,7629170397;348;13;0;7;262;2110,03793285571;0
"33";"nantes";"max";20833,3398734154;7564;55;1570;22;1763;5950,18725874753;4
"34";"nimes";"mean";11137,6340648723;953;2;311;27;0;1437,26793496648;3
"35";"nimes";"min";10790,926848299;323;0;10;7;0;1114,92561933128;3
"36";"nimes";"max";11484,3412814456;1583;4;612;47;0;1759,61025060168;3
"37";"paimpol";"mean";9393,54114491382;181,714285714286;32,1428571428571;454,571428571429;5;170,714285714286;753,318515990334;1,28571428571429
"38";"paimpol";"min";5614,26187635842;52;1;0;0;0;46,9691592565377;0
"39";"paimpol";"max";16353,5364521565;442;51;1147;17;765;1728,6271345192;2
"40";"reims";"mean";4849,89336671587;872,870967741935;8,80645161290323;144,290322580645;1,06451612903226;82,8387096774194;676,318327375663;0,290322580645161
"41";"reims";"min";0;0;0;0;0;0;0;0
"42";"reims";"max";24852,2841461229;3817;72;2633;12;1561;6554,89980617757;2
"43";"rennes";"mean";10206,878094464;2136,33333333333;70,3333333333333;376,333333333333;5,83333333333333;0;1599,3045220562;0,666666666666667
"44";"rennes";"min";3320,85207271678;18;15;4;1;0;742,712051945651;0
"45";"rennes";"max";15204,9448038498;4696;232;707;15;0;2448,68036858157;2
"46";"stpol";"mean";10686,9485170386;334,333333333333;22,7777777777778;1039,33333333333;8,55555555555556;151,333333333333;1488,01685696478;1,66666666666667
"47";"stpol";"min";4100,57974078105;107;5;209;2;0;537,608568640947;0
"48";"stpol";"max";15505,8758974276;635;67;2653;19;1222;2664,67501165173;5
"49";"tours";"mean";11769,2199698234;2218,9;39,7;1267,4;11;207,4;2341,74984330827;1,2
"50";"tours";"min";4653,84965416145;447;15;2;0;0;1242,80547893289;0
"51";"tours";"max";17761,5603841081;3659;80;3063;41;1860;5296,5059714435;4
